<?xml version="1.0" encoding="utf-8"?>
<!-- Generator: Adobe Illustrator 21.1.0, SVG Export Plug-In . SVG Version: 6.00 Build 0)  -->
<svg version="1.1" id="Layer_1" xmlns="http://www.w3.org/2000/svg" xmlns:xlink="http://www.w3.org/1999/xlink" x="0px" y="0px"
	 viewBox="0 0 160 160" style="enable-background:new 0 0 160 160;" xml:space="preserve">
<style type="text/css">
	.st0{fill:#FF4D4D;}
</style>
<path class="st0" d="M80,159c-43.6,0-79-35.4-79-79S36.4,1,80,1s79,35.4,79,79S123.6,159,80,159z M80,13c-36.9,0-67,30.1-67,67
	c0,36.9,30.1,67,67,67c36.9,0,67-30.1,67-67C147,43.1,116.9,13,80,13z"/>
</svg>
